{
  "development": {
    "config_id": "development",
    "app_name": "API Node.js by creative",
    "app_desc": "A Node.js API starter pack",
    "root": "http://localhost:3000",
    "node_port": 3000,
    "version": "v1",
    "db": "mongodb+srv://admin:admin@cluster0.sn3lz.mongodb.net/myFirstDatabase?authSource=admin&replicaSet=atlas-140083-shard-0&w=majority&readPreference=primary&appname=MongoDB%20Compass&retryWrites=true&ssl=true"
  },
  "testing": {
    "config_id": "testing",
    "app_name": "API Node.js by creative",
    "app_desc": "A Node.js API starter pack",
    "root": "http://localhost:3000",
    "node_port": 3000,
    "version": "v1",
    "db": "[DB_URL TO PASTE HERE]"
  },
  "staging": {
    "config_id": "staging",
    "app_name": "API Node.js by creative",
    "app_desc": "A Node.js API starter pack",
    "root": "http://localhost:3000",
    "node_port": 3000,
    "version": "v1",
    "db": "[DB_URL TO PASTE HERE]"
  },
  "production": {
    "config_id": "production",
    "app_name": "API Node.js by creative",
    "app_desc": "A Node.js API starter pack",
    "root": "https://api.domain.com",
    "node_port": 3000,
    "version": "v1",
    "db": "[DB_URL TO PASTE HERE]"
  }
}
